[
  {
    "name": "theme_info",
    "theme_name": "Intervaro Start",
    "theme_version": "0.0.1",
    "theme_author": "Intervaro",
    "theme_documentation_url": "https://intervaro.se",
    "theme_support_email": "support@intervaro.se"
  },
  {
    "name": "Header",
    "settings": [
      {
        "type": "header",
        "content": "Announcement bar"
      },
      {
        "type": "checkbox",
        "id": "announcement_bar_enabled",
        "label": "Show announcement",
        "default": false
      },
      {
        "type": "checkbox",
        "id": "announcement_bar_home_page_only",
        "label": "Show on home page only",
        "default": true
      },
      {
        "type": "text",
        "id": "announcement_bar_text",
        "label": "Announcement text",
        "default": "Announce something here"
      },
      {
        "type": "url",
        "id": "announcement_bar_link",
        "label": "Announcement link",
        "info": "Optional"
      },
      {
        "type": "header",
        "content": "Header items"
      },
      {
        "type": "link_list",
        "id": "menu",
        "label": "Menu",
        "default": "main-menu"
      },
      {
        "type": "link_list",
        "id": "menu_mobile",
        "label": "Mobile Menu",
        "default": "main-menu"
      },
      {
        "type": "text",
        "id": "header_social_title",
        "label": "Mobile social media title",
        "default": "Följ oss"
      }
    ]
  },
  {
    "name": "Cookie Notice",
    "settings": [
      {
        "type": "checkbox",
        "id": "cookie_notice_enabled",
        "label": "Display Cookie Notice",
        "default": true
      },
      {
        "type": "richtext",
        "id": "cookie_notice",
        "label": "Cookie Notice Message"
      }
    ]
  },
  {
    "name": "Footer",
    "settings": [
      {
        "type": "text",
        "id": "copyright_1",
        "label": "Copyright line 1"
      },
      {
        "type": "text",
        "id": "copyright_2",
        "label": "Copyright line 2"
      },
      {
        "type": "link_list",
        "id": "footer_linklist",
        "label": "Menu 1",
        "default": "footer"
      },
      {
        "type": "link_list",
        "id": "footer_linklist_2",
        "label": "Menu 2"
      },
      {
        "type": "text",
        "id": "footer_social_title",
        "label": "Social media title",
        "default": "Följ oss"
      },
      {
        "type": "text",
        "id": "footer_newsletter_title",
        "label": "Newsletter title"
      }
    ]
  },
  {
    "name": "Social media",
    "settings": [
      {
        "type": "header",
        "content": "Social sharing image"
      },
      {
        "type": "image_picker",
        "id": "share_image",
        "label": "Image",
        "info": "Shown when sharing a link on social media. [Learn more](https://help.shopify.com/manual/using-themes/troubleshooting/showing-social-media-thumbnail-images/) about image thumbnails."
      },
      {
        "type": "header",
        "content": "Sharing links"
      },
      {
        "type": "text",
        "id": "social_twitter_link",
        "label": "Twitter link"
      },
      {
        "type": "text",
        "id": "social_facebook_link",
        "label": "Facebook link"
      },
      {
        "type": "text",
        "id": "social_pinterest_link",
        "label": "Pinterest link"
      },
      {
        "type": "text",
        "id": "social_instagram_link",
        "label": "Instagram link"
      },
      {
        "type": "text",
        "id": "social_snapchat_link",
        "label": "Snapchat link"
      },
      {
        "type": "text",
        "id": "social_tumblr_link",
        "label": "Tumblr link"
      },
      {
        "type": "text",
        "id": "social_youtube_link",
        "label": "Youtube link"
      },
      {
        "type": "text",
        "id": "social_vimeo_link",
        "label": "Vimeo link"
      }
    ]
  },
  {
    "name": "Scripts",
    "settings": [
      {
        "type": "textarea",
        "id": "head_script",
        "label": "Head script"
      },
      {
        "type": "textarea",
        "id": "after_body_script",
        "label": "After body script"
      },
      {
        "type": "textarea",
        "id": "footer_script",
        "label": "Footer script"
      }
    ]
  }
]
